A01AB03;Corsodyl;Gel;F;O;FO;1.0000;%;Infeksjon i munnhulen;Smøres på tannkjøttet x2;1 x 2
A01AB03;Corsodyl;Munnskylling;F;O;FO;2.0000;mg;tannkjøtt betennelse;Skylles i munnen 10 ml 2 ggrl dgl.;1 x 2
A01AA01;Flux;Sugetablett;F;D;FD;0.2500;mg;Kariesprofylakse;Etter tannstell;1 x 2
A01AA01;Xerodent;Sugetablett;F;O;FO;0.2500;mg Fe;Munntørrhet;Inntil 2x3;1 x 3
A02AD01;Link;Tyggetablett;B;X;BX;700.0000;mg;Halsbrann/sure oppstøt;1-2 tabletter ved behov.;Se tekst
A02BA02;Ranitidin;Tablett;F;M;FM;300.0000;mg;Gastroøsofagal reflukssykdom;Vurdere effekt fortløpende med tanke på magesmerter;1 x 2
A02BA02;Zantac;Brusetablett;B;O;BO;150.0000;mg;dyspepsi - sure oppstøt;ved behov ved sure oppstøt/øvre magesmerter;Max 1 x 2
A02BC02;Somac;Enterotablett;K;D;KD;40.0000;mg;magesår;1 tablett daglig 1 time før frokost.;1 x 1
A02BC03;Lansoprazol KRKA;Enterokapsler;F;M;FM;15.0000;mg;syrehemmende;Gi 1/2 time før frukost;1 x 1
A02BC05;Nexium;Enterotablett;F;M;FM;20.0000;mg;Reflux;1 enterotablett svelges hel morgen;1 x 1
A02BC05;Nexium;Enterotablett;F;M;FM;40.0000;mg;gastritt;revurdere effekt;1 x 1
A02BC05;Nexium;Enterotablett;K;M;KM;40.0000;mg;Mistenkt magesår;i 4 uker.;1 x 1
A03FA01;Afipran;Tablett;B;X;BX;10.0000;mg;Kvalmestillende;1 tabl inntil x 3 ved kvalme;Se tekst
A03FA01;Afipran;Tablett;K;D;KD;10.0000;mg;Kvalme;30 min. før måltid.;1 x 3
A06AB08;Laxoberal;Dråper, oppløsning;U;O;UO;7.00;mg/ml;obstip.;mandag og torsdag 10 dråper;20/uke
A06AD11;Laktulose Merck NM;Mikstur;F;O;FO;667.0000;mg/ml;obstipasjon;15ml morgen mot forstoppelse;1 ml x 1
A06AD11;Laktulose Merck NM;Mikstur;F;O;FO;667.0000;mg/ml;obstipasjon;15ml morgen mot forstoppelse;15 ml x 1
A06AD11;Laktulose Merck NM;Mikstur;F;O;FO;667.0000;mg/ml;obstipasjon;15ml morgen og kveld;1 ml x 2
A06AD65;Movicol;Pulver;U;O;UO;0.0000;;Obstipasjon;1 dosepose mandag, onsdag og fredag.;3/uke
A10AB05;NovoRapid;Injeksjonsvæske;B;X;BX;100.0000;E/ml;Diabetes;6 enheter ved blodsukker over 20, 4 enheter ved blodsukker over 15.;Se tekst
A10AC01;Insulatard FlexPen;Injeksjonsvæske, suspensjon;F;X;FX;100.0000;IE/ml;Diabetes type II;26 enheter insulatard hver morgen.;Se tekst
A10AC01;Insulatard FlexPen;Injeksjonsvæske, suspensjon;F;X;FX;100.0000;IE/ml;Diabetes type II;26 enheter morgen og 20 enheter insulatard hver kveld. Obs nattlig hypoglykemi.;Se tekst
A10AC01;Insulatard FlexPen;Injeksjonsvæske, suspensjon;F;X;FX;100.0000;IE/ml;Diabetes type II;28 enheter morgen og 22 enheter insulatard hver kveld. Blodsukkermåling x2. Fastende morgen og før kveldsmat. Obs nattlig hypoglykemi.;Se tekst
A10AD05;NovoMix 30 Penfill;Injeksjonsvæske;F;D;FD;100.0000;E/ml;diabetes II;24 iE morgen og 12 iE ettermiddag;0,24+0,12 ml
A10AD05;NovoMix 30 Penfill;Injeksjonsvæske;F;D;FD;100.0000;E/ml;diabetes II;30 iE morgen og 12 iE ettermiddag;0,3+0,12 ml
A10BA02;Glucophage;Tablett;F;M;FM;500.0000;mg;Diabetes;Diabetes;1 x 2
A10BA02;Metformin;Tablett;F;M;FM;1000.0000;mg;diabetes ;obs mage/tarm bivirkning;1 x 3
A10BB07;Mindiab;Tablett;F;D;FD;5.0000;mg;Diabetes mellitus II;3 tab. før frokost;3 x 1
A10BB12;Amaryl;Tablett;F;D;FD;1.0000;mg;Diabetes Mellitus;Inntas sammen med frokost. Svelges hel;1 x 1
A12AX;Calcigran Forte;Tyggetablett;F;M;FM;0.0000;;Osteoporose;1000mg x1;1 x 1
A12AX;Calcigran Forte;Tyggetablett;K;D;KD;0.0000;;osteoporose;ikke mandag,;1 x 2
A12AX;Calcigran Forte;Tyggetablett;U;D;UD;0.0000;;osteoporose;søndag, tirsdag, onsdag, torsdag, fredag og lørdag 1.;6/uke
B01AB04;Fragmin;Injeksjonsvæske, oppløsning;F;O;FO;25000.0000;IE/ml;tromboseprofylakse;5000 iE x 1 settes sc;0,2 ml x 1
B01AC04;Plavix;Tablett;F;M;FM;75.0000;mg;Forebygging av aterotrombotiske hendelser;Lege HDS;1 x 1
B01AC04;Plavix;Tablett;F;M;FM;75.0000;mg;hjerteinfarkt;tromboseprofylaxe;1 x 1
B01AC06;Albyl-E;Enterotablett;F;D;FD;75.0000;mg;Antikoagulasjon;Svelges hel;1 x 1
B01AC06;Albyl-E;Enterotablett;F;D;FD;75.0000;mg;Antikoagulasjon;Svelges hel.;1 x 1
B01AC06;Albyl-E;Enterotablett;F;D;FD;75.0000;mg;Antitrobotisk;Må svelges hel;1 x 1
B01AC06;Albyl-E;Enterotablett;F;D;FD;75.0000;mg;Antitrombotisk;1 tablett morgen;1 x 1
B01AC06;Albyl-E;Enterotablett;F;M;FM;160.0000;mg;Trombeprofylaktisk;Mot atrieflimmer;1 x 1
B01AC07;Persantin retard;Kapsel;F;M;FM;200.0000;mg;Sekundær profylakse av ischemisk apopleksi  og forbigående ische;1 kapsel 2 ganger daglig;1 x 2
B01AA03;Marevan;Tablett;F;X;FX;2.00;mg;Antikoagulasjon;Se egen liste;Se tekst
B01AA03;Marevan;Tablett;F;D;FD;2.00;mg; blodfortynnende;etter egen liste;-1 x 1
B03BA03;Vitamin b12 depot;Injeksjonsvæske;F;X;FX;1.0000;mg/ml;funksjonell B12-mangel;1 ml im. hver 3 mnd;Se tekst
B03BB01;Nycoplus Folsyre;Tablett;F;M;FM;0.4000;mg;Folsyremangel;1 tab. daglig.;1 x 1
B03AA07;Duroferon fe ii;Depottablett;F;D;FD;100.0000;mg;Jernmangel;Svelges hel;1 x 2
C01DA02;Nitrolingual;Munnspray;B;X;BX;0.4000;mg;angina pectoris;1-2 ved brystsmerter;Se tekst
C01DA02;Nitromex;Sublingvaltablett;B;O;BO;0.5000;mg;brystsmerter;ved brystsmerter 1-2 tabl s.l.;Maks 4/d
C01DA14;Imdur;Depottablett;F;M;FM;30.0000;mg;angina ;1 tablett daglig;1 x 1
C01AA04;Digoxin Takeda;Tablett;F;D;FD;62.5000;mcg;Atrieflimmer;1 daglig;1 x 1
C01AA04;Digoxin Takeda;Tablett;F;D;FD;62.5000;mcg;Atrieflimmer;1 daglig;1 x 1
C03CA01;Diural;Tablett;F;M;FM;40.0000;mg;vanndrivende;1 tablett morgen og formiddag;1 x 2
C03CA02;Burinex;Tablett;F;M;FM;1.0000;mg;Hjertesvikt;Kontroller BT og puls. Vurder ødemer og tung pust.;1 x 2
C03CA02;Burinex;Tablett;F;M;FM;1.0000;mg;Hjertesvikt;Observer tegn til ødemer og tung pust. Mål BT jevnlig.;1 x 1
C03CA02;Burinex;Tablett;F;M;FM;1.0000;mg;Hjertesvikt;Observer tegn til ødemer og tung pust. Mål BT jevnlig.;2+1
C03CA02;Burinex;Tablett;F;X;FX;2.0000;mg;hjertesvikt;1 tablett  daglig.;1:00 a.m.
C07AB02;Metoprolol Sandoz;Depottablett;F;D;FD;100.0000;mg;Blodtrykk;Svelges hel;1 x 1
C07AB02;Selo-zok;Depottablett;F;D;FD;25.0000;mg;Atrieflimmer;Redusert fra 75mg totalt til 25mgx1;1 x 1
C07AB02;Selo-zok;Depottablett;F;D;FD;50.0000;mg;Hypertensjon;1 depottab morgen;1 x 1
C07AB02;Selo-zok;Depottablett;F;X;FX;25.0000;mg;Hjertesvikt;1 depottablett 2 ganger daglig.;1+1
C08CA01;Amlodipin BMM Pharma;Tablett;F;D;FD;5.0000;mg;Hypertensjon;1 tabelett morgen;1 x 1
C08CA05;Adalat;Tablett;F;M;FM;10.0000;mg;hypertensjon;BT sjekkes daglig x 2;1 x 2
C08CA05;Adalat Oros;Depottablett;F;D;FD;20.0000;mg;hypertensjon;1 tablett daglig;1 x 1
C08DA01;Isoptin;Tablett;B;X;BX;80.0000;mg;Rask hjerterytme;Rask hjerterytme og brystsmerter;Se tekst
C09BA02;Renitec Comp;Tablett;F;D;FD;0.0000;;Hypertensjon;Renitec comp 20/12,5 mg halv tablett daglig;0,5 x 1
C09CA01;Cozaar;Tablett, filmdrasjert;F;D;FD;50.0000;mg;angeotensin;Ved BT under 120 bør dosen halveres.;1 x 1
C09CA01;Cozaar;Tablett, filmdrasjert;F;X;FX;50.0000;mg;Hypertensjon;1/2 tbl daglig;Se tekst
C09AA02;Renitec;Tablett;F;D;FD;5.0000;mg;høyt blodtrykk;dosejustering om 2 uker.;1 x 1
C09AA02;Renitec;Tablett;F;D;FD;5.0000;mg;Hjertesvikt;1 daglig;1 x 1
1 daglig+5875:5885;Renitec;Tablett;F;M;FM;10.0000;mg;hypertensjon;BT skal måles x2 daglig!!;1 x 1
C10AA01;Simvastatin Actavis;Tablett;F;M;FM;20.0000;mg;Kolestrolsenkende;1 tbl. om kvelden;1 x 1
G03CA04;Ovesterin;Vag;U;O;UO;0.5000;mg;Profylakse mot UVI;mandag og torsdag 1.;2/uke
G04CA02;Omnic;Depotkapsel;F;D;FD;0.4000;mg;Vannlatingsbesvær;1 depotkapsel morgen;1 x 1
H03AA01;Levaxin;Tablett;U;D;UD;0.0500;mg;hypotyreose;søndag, mandag, tirsdag, onsdag, torsdag og fredag 1.;6/uke
H03AA01;Levaxin;Tablett;U;M;UM;0.1500;mcg;hypotyreose;søndag, tirsdag, onsdag, fredag og lørdag 0,5.;2,5/uke
H03AA01;Levaxin;Tablett;U;M;UM;0.1500;mg;hypothyreose;1 tbl man. tirs, tors, fre og lør;5/uke
H03AA01;Levaxin;Tablett;U;X;UX;0.1000;mg;hypotireose;1 tbl mandag, onsdag, fredag og søndag;Se tekst
J01CA08;Selexid;Tablett;K;O;KO;200.0000;mg;urinveisinfeksjon;1 tbl 3 ggr daglig;1 x 3
J01CE02;Apocillin;Tablett, filmdrasjert;F;D;FD;660.0000;mg;pneumoni;1 tab x 4 daglig.;1 x 4
J01CF01;Diclocil;Kapsel;K;D;KD;500.0000;mg;Infeksjon;mot infeksjon i sår i høyre ankel;1 x 4
J01DD04;Ceftriaxone;Pulver og væske til inj. væske;K;O;KO;1.0000;g;infeksjone;1g x 1 im (blandes med lidokain) , ;1 x 1
J01EA01;Trimetoprim;Tablett;K;D;KD;160.0000;mg;urinveisinfeksjon;1 tablett morgen og kveld mot uvi.;1 x 2
J01EE01;Bactrim;Tablett;K;D;KD;0.0000;;Cystitt;2 tabletter morgen og kveld i 10 dager mot UVI;2 x 2
J01MA02;Ciproxin;Tablett;K;D;KD;250.0000;mg;UVI nedre;1 tbl x 2, bør svelges hele uten å tygge;1 x 2
J01XE01;Furadantin;Tablett;F;D;FD;50.0000;mg;mot urinveisinfeksjon;1 tab. daglig forebyggende mot UVI.;1 x 1
J01XX05;Hiprex;Tablett;F;D;FD;1.0000;g;UVI-profylakse;Taes fortrinnsvis etter vannlatning morgen og kveld.;1 x 2
J01AA02;Doxylin;Tablett;K;X;KX;100.0000;mg;Infeksjon;T.o.m. morgen 26.2.10;Se tekst
J01AA02;Doxylin;Tablett;K;X;KX;100.0000;mg;pneumoni;2tbl første dag, deretter 1 tbl dgl i 7 dager.;Se tekst
M01AB05;Voltaren;Enterotablett;F;D;FD;50.0000;mg;mot slitasjegiktsmerter;Tas til mat;1 x 2
M01AE01;Ibux;Tablett;K;X;KX;200.0000;mg;SENEBETENNELSE;Ibux 20 mg x 2 i 5 dager pga senebetennelse;Se tekst
M02AA13;Ibux;Gel;K;X;KX;5.0000;%;bursitt h. albu.;Påsmøres x3 daglig i 3 dager. Behandlingslengde revurderes avh. av effekt.;Se tekst
M02AA13;Ibux;Gel;K;X;KX;5.0000;%;hevelse h. håndledd;Påsmøres x3 daglig i en uke.;Se tekst
M05BA04;Alendronat Arrow;Tablett;U;D;UD;70.0000;mg;osteoporose;taes en halv time før mat og medisiner fredag morgen;1/uke
M05BA04;Alendronat Arrow;Tablett;U;D;UD;70.0000;mg;osteoporose;taes i sittende stilling minst en halv time før mat hver fredag morgen;1/uke
M05BA04;Alendronat Arrow;Tablett;U;O;UO;70.0000;mg;mot osteoporose;Gies hver mandag minst 1/2 time før mat. Skal være oppe eller i fullt sittende stilling etterpå.;1/uke
N02AB03;Durogesic;Depotplaster;F;O;FO;100.0000;mcg/t;smerter;Byttes hver 3. dag.;1 t x 1
N02AB03;Durogesic;Depotplaster;F;X;FX;25.0000;mcg/t;Smerter;Skiftes hver 3. dag;Se tekst
N02AE01;Norspan;Depotplaster;U;O;UO;5.0000;mcg/t;hofteartrose smerter;tirsdag 1.;1/uke
N02AE01;Norspan;Depotplaster;U;O;UO;10.0000;mcg/t;smerter;torsdag 1.;1/uke
N02AE01;Norspan;Depotplaster;U;O;UO;10.0000;mcg/t;smerter rygg;torsdag 1.;1/uke
N02AX02;Tramadol;Kapsel;F;X;FX;50.0000;mg;smerter;Smertestillende. Effekt vurderes.;1+1+1+2
N02AX02;Tramadol;Kapsel;K;D;KD;50.0000;mg;ryggsm.;Gies før stell;1 x 2
N02AX02;Tramadol HEXAL;Kapsel;B;X;BX;50.0000;mg;smerter;1 kps inntil x 3;Se tekst
N02AX02;Tramadol HEXAL;Kapsel;B;X;BX;50.0000;mg;smerter;1 tabl. inntil x3.;Se tekst
N02BE01;Paracet;Tablett;B;O;BO;1.0000;g;smerter;1tbl x 4 ved sterke smerter;Maks 4/d
N02BE01;Paracet;Tablett;B;X;BX;500.0000;mg;smertestillende;1 tbl inntil x 4 ved smerter;Se tekst
N02BE01;Paracet;Tablett;B;X;BX;500.0000;mg;Smertestillende;1-2 tabl. inntil x3.;Se tekst
N02BE01;Paracet;Tablett;F;M;FM;500.0000;mg;Ryggsmerte;Knuses, evt supp;2 x 4
N02BE01;Paracet;Tablett;F;M;FM;500.0000;mg;Smerter;Mot smerter.;2 x 3
N02BE01;Paracetamol;Tablett;B;O;BO;500.0000;mg;Smerter;1-2 tbl ved behov, inntil x 4;Maks 2/d
N02BE01;Paracetamol;Tablett;B;O;BO;500.0000;mg;Smerter;1-2 tbl ved behov, inntil x 4;Maks 8/d
N02AA01;Morfin;Injeksjonsvæske, oppløsning;B;X;BX;10.0000;mg/ml;ved sterke smerter;2,5 mg hver 4 time ved sterke smerter.;Se tekst
N02AA01;Morfin;Mikstur;B;O;BO;10.0000;mg/ml;smerter;10mg inntil x6 i døgnet. Gi i sonde.;Maks 6/d
N02AA05;OxyContin;Depottablett;F;D;FD;10.0000;mg;smerter;Gis kl. 09.00 og kl. 21.00.;1 x 2
N02AA05;OxyContin;Depottablett;F;D;FD;20.0000;mg;smerter;Gis kl 09.00 og kl 21.00;1 x 2
N02AA05;OxyNorm;Kapsel;B;X;BX;5.0000;mg;Mot smerter;1 kaps inntil x 6 ved gjennombruddsmerter.;Se tekst
N02AA59;Paralgin forte;Tablett;B;X;BX;0.0000;; smerter;1 tbl inntil x 3 daglig ved smerter;Se tekst
N02AA59;Pinex Forte;Tablett;F;D;FD;0.0000;;Smerter;1 tablett x 3 daglig mot smerter;1 x 3
N04BA02;Sinemet 25/100;Tablett;F;M;FM;25.0000;mg/100mg;Parkinsonisme;1 tablett  klokken 07.00, 12.00, 16.30 og 21.00.;1 100mg x 4
N04BA03;Stalevo;Tablett, filmdrasjert;F;D;FD;100.0000;mg/25 mg/200 mg;parkinson;kl 6, 9, 12, 16.30;1 25 mg x 4
N05AB04;Stemetil;Tablett;B;O;BO;5.0000;mg;SVIMMELHET ;1 TABL VED SVIMMELHET;Maks 3/d
N05AD01;Haldol;Tablett;K;D;KD;1.0000;mg;forvirring/psykose;obs bivirkninger;1 x 2
N05AH03;Zyprexa;Tablett;F;M;FM;5.0000;mg;Psykose;2,5mg tbl om morgenen, 5mg kveld;0,5+1
N05AH04;Quetiapin Copyfarm;Tablett, filmdrasjert;F;D;FD;25.0000;mg;Uro/agitasjon;Uro, mest natt;1 x 1
N05AH04;Seroquel;Tablett;K;D;KD;25.0000;mg;Hallusinasjoner og uro;Vurderes etter 14 dager.;1 x 1
N05AX08;Risperdal;Tablett;F;D;FD;0.5000;mg;Aggresjon/hallusinasjoner? ;Nedtrapping pga trøtt dagtid.;0,5 x 1
N05BA01;Stesolid;Rektalvæske;B;X;BX;10.0000;mg/2,5ml;Kramper/bevissthetstap;10 mg rektalt ved anfall som ikke går over iløpet av 5 min. Ny dose etter 5 min ved manglende effekt og lege kontaktes.;Se tekst
N05BA01;Vival;Tablett;B;X;BX;2.0000;mg;Indre uro/angst;1 tablett ved behov;Se tekst
N05BA01;Vival;Tablett;B;X;BX;2.0000;mg;Indre uro/angst;1-2 tabletter ved behov;Se tekst
N05BA04;Sobril;Tablett;K;D;KD;10.0000;mg;Uro og angst;revurdrees om et par uker;1 x 1
N05BB01;Atarax;Tablett;F;M;FM;10.0000;mg;hudkløe;1 tabl daglig hudkløe;1 x 1
N05CF01;Imovane;Tablett;F;M;FM;5.0000;mg;søvnvansker;Kl 21 ved søvnvansker;1 x 1
N05CF01;Zopiklon Merck NM;Tablett, filmdrasjert;F;D;FD;5.0000;mg;sovevansker;1 tablett før sengetid, effekten skal vurderes ved neste visitt;1 x 1
N05CF01;Zopiklon Merck NM;Tablett, filmdrasjert;F;D;FD;5.0000;mg;søvnvansker;1 tablett før sengetid;1 x 1
N05CF01;Zopiklon Merck NM;Tablett, filmdrasjert;F;O;FO;5.0000;mg;innsovingproblemer;1 tablett før sengetid;1 x 1
N05CM17;Circadin;Depottablett;B;X;BX;2.0000;mg;søvnproblemer;1 tabl kveld;Se tekst
N06AB04;Cipramil;Tablett;F;D;FD;20.0000;mg;Depresjon;Vurder effekt;1 x 1
N06AB10;Cipralex;Tablett, filmdrasjert;F;M;FM;5.0000;mg;depresjon;vurdere effekt etter 2-4 uker;1 x 1
N06AB10;Cipralex;Tablett, filmdrasjert;F;M;FM;20.0000;mg;Behandling av depressive episoder. Behandling av panikklidelse m;nedtrapping-fortlløpende vurdering;0,5 x 1
N06AB10;Cipralex;Tablett, filmdrasjert;F;M;FM;20.0000;mg;depresjon;Cipralex 20 mg x 1 fra Haukeland Sykehus.;1 x 1
N06AB10;Cipralex;Tablett, filmdrasjert;F;M;FM;20.0000;mg;Depresjon;Dosereduksjon pga for høyt s-nivå.;0,5 x 1
N06AB10;Cipralex;Tablett, filmdrasjert;F;O;FO;5.0000;mg;depresjon;økning til 10 mg etter 1 uke;1 x 1
N06AX11;Remeron;Tablett, filmdrasjert;F;D;FD;30.0000;mg;Nedstemthet og søvnvansker.;0.5 tabl. hver kveld mot søvnvansker og nedstemthet, videre vurdere økning til 30 mg daglig.;0,5 x 1
N06AX11;Remeron;Tablett, filmdrasjert;F;M;FM;30.0000;mg;Derpresjon;Svelges hele;2 x 1
N06AX16;Efexor;Tablett;F;D;FD;37.5000;mg;depresjon;økes til 75 mg andre uke;1 x 1
N06DA02;Aricept;Tablett;F;M;FM;10.0000;mg;Alzheimer demens;Vurder effekt fortløpende;1 x 1
N06DA03;Exelon;Kapsel;F;D;FD;3.0000;mg;Demens;1 kapsel morgen, 1 kapsel aften;1 x 2
N06DA03;Exelon;Kapsel;F;D;FD;3.0000;mg;Demens;1 kapsel morgen, 1 kapsel aften;1 x 3
N06DX01;Ebixa;Tablett, filmdrasjert;F;D;FD;10.0000;mg;irritabilitet og utagering;Tbl knuses.;1 x 2
N06DX01;Ebixa;Tablett, filmdrasjert;F;M;FM;10.0000;mg;Demens;1 tabl kveld;1 x 1
N06DX01;Ebixa;Tablett, filmdrasjert;F;M;FM;10.0000;mg;Demens;1 tabl morgen og kveld;1 x 2
N06AA09;Sarotex-Retard;Depotkapsel;F;D;FD;25.0000;mg;Antidepressiva;1 tabl. daglig mot smerter og nedstemthet.;1 x 1
P01AB01;Flagyl;Tablett;K;D;KD;400.0000;mg;clostridium;1 tablett 3 ggr dgl i inntil 1 uke etter diare opphører.;1 x 3
R03AC02;Ventoline;Inhalasjonspulver;F;O;FO;0.2000;mg/dose;Astma/KOLS;Mot Astma/KOLS. Inhaleres med kammer x 4 daglig.;1 dose x 4
R03BB01;Atrovent;Inhalasjonsvæske;F;O;FO;0.1250;mg/ml;KOLS, tungpust;På forstøverapparat;2,5 ml x 3
R05CB01;Bronkyl;Brusetablett;B;O;BO;200.0000;mg;slimløsende;1 brusetabl inntil x 3 daglig;Maks 3/d
R05CB01;Mucomyst;Brusetablett;B;O;BO;200.0000;mg;slimløsende;1 tabl inntil 3 ggr daglig;Maks 3/d
R06AE07;Cetirizin HEXAL;Tablett;F;M;FM;10.0000;mg;allergi;allergimedisin;1 x 1
S01ED01;Timosan;Depotøyedråper;F;X;FX;1.0000;mg/ml;Glaukom;1 dråpe i hvert øye;1 x 1
S01ED51;Cosopt;Øyedråper;F;D;FD;0.0000;; Grønn stær;Dryppes begge øyne morgen og kveld.;1 x 2
S01EE01;Xalatan;Øyedråper;F;O;FO;50.0000;mcg/ml;glaucom;1 dråpe i begge øyne;1 ml x 1
S01GX02;Livostin;Øyedråper;F;X;FX;0.5000;mg/ml;Allergisk konjunktivitt;1 dråpe i hvert øye 2 ggr daglig for allergi;Se tekst
S01XA20;Simplex;Øyesalve;B;O;BO;0.0000;;tørre øyne;påføres øyne ved tørrhet eller svie;Maks 2/d
S01XA20;Viscotears;Øyegel;F;O;FO;0.0000;;Tørre øyne;1 dråpe 3-4 ganger daglig;1 x 1
S01AA01;Kloramfenikol;Øyedråper;K;O;KO;5.0000;mg/ml;konjunktivitt;1 dråpe i begge øyene hver 2:e time i 2 dgr, deretter hver 5:e time.;1 ml x 4
S01AA01;Kloramfenikol;Øyesalve;K;X;KX;1.0000;%;øyeinfeksjon.;Mot øyeinf. 1x3 i 1 uke.;Se tekst
S01AA13;Fucithalmic;Øyedråper, suspensjon;K;X;KX;1.0000;%;Øyebetennelse;1 dråpe i hvert øye 4 ganger daglig første døgn, deretter 2 x daglig inntil 2 dager etter symptomfrihet. Max 2 uker.;Se tekst
S03CA01;Sofradex;Øye-/øredråper;K;O;KO;0.0000;;øresår;2 dr x 3 daglig i 7 dager;1 x 3
S03CA04;Terra-cortril polymyxin b;Øredråper;K;X;KX;0.0000;;infeksjon i hø øregang;2 dråper i hø øregang 3 ganger daglig i 7 dager mot infeksjon;2 x 3
V03AE01;Resonium-calcium;Pulver;K;X;KX;0.0000;;Hyperkalemi;15 gram morgen og kveld.;Se tekst
V07AB;Natriumklorid;Oppl.væske til parenteral bruk;B;O;BO;9.0000;mg/ml;Nyresvikt/dehydrering;1L daglig ved behov ved lavt væskeinntak;Max 1 x 1
N04BA02;Sinemet 25/100;Tablett;F;M;FM;25.0000;mg/100mg;Parkinsonisme;1 tablett  klokken 07.00, 12.00, 16.30 og 21.00.;1 100mg x 4
N04BA03;Stalevo;Tablett, filmdrasjert;F;D;FD;100.0000;mg/25 mg/200 mg;parkinson;kl 6, 9, 12, 16.30;1 25 mg x 4
N05AB04;Stemetil;Tablett;B;O;BO;5.0000;mg;SVIMMELHET ;1 TABL VED SVIMMELHET;Maks 3/d
N05AD01;Haldol;Tablett;K;D;KD;1.0000;mg;forvirring/psykose;obs bivirkninger;1 x 2
N05AH03;Zyprexa;Tablett;F;M;FM;5.0000;mg;Psykose;2,5mg tbl om morgenen, 5mg kveld;0,5+1
N05AH04;Quetiapin Copyfarm;Tablett, filmdrasjert;F;D;FD;25.0000;mg;Uro/agitasjon;Uro, mest natt;1 x 1
N05AH04;Seroquel;Tablett;K;D;KD;25.0000;mg;Hallusinasjoner og uro;Vurderes etter 14 dager.;1 x 1
N05AX08;Risperdal;Tablett;F;D;FD;0.5000;mg;Aggresjon/hallusinasjoner? ;Nedtrapping pga trøtt dagtid.;0,5 x 1
N05BA01;Stesolid;Rektalvæske;B;X;BX;10.0000;mg/2,5ml;Kramper/bevissthetstap;10 mg rektalt ved anfall som ikke går over iløpet av 5 min. Ny dose etter 5 min ved manglende effekt og lege kontaktes.;Se tekst
N05BA01;Vival;Tablett;B;X;BX;2.0000;mg;Indre uro/angst;1 tablett ved behov;Se tekst
N05BA01;Vival;Tablett;B;X;BX;2.0000;mg;Indre uro/angst;1-2 tabletter ved behov;Se tekst
N05BA04;Sobril;Tablett;K;D;KD;10.0000;mg;Uro og angst;revurdrees om et par uker;1 x 1
B01AF02;Eliquis;Tablett;F;M;FM;5.0000;mg;Atrieflimmer;1 tablett x 2 daglig;1 x 2
B01AF02;Eliquis;Tablett;F;M;FM;5.0000;mg;Atrieflimmer;1 tablett x 2 daglig;1 x 2
B01AF02;Eliquis;Tablett;F;M;FM;5.0000;mg;Atrieflimmer;1 tablett x 2 daglig;1 x 2
